…
## Parsed with column specification:
## cols(
##   .default = col_character(),
##   Death = col_logical(),
##   JobType4 = col_logical(),
##   JobType5 = col_logical()
## )

## See spec(...) for full column specifications.

data <- clean_names(data)

data

## # A tibble: 20,580 x 26
##    congress last  first middle suffix nickname born  death sex   position
##    <chr>    <chr> <chr> <chr>  <chr>  <chr>    <chr> <chr> <chr> <chr>   
##  1 1        Aber… Thom… Gerst… <NA>   <NA>     05/1… 01/2… M     U.S. Re…
##  2 1        Adams Sher… <NA>   <NA>   <NA>     01/0… 10/2… M     U.S. Re…
##  3 1        Aiken Geor… David  <NA>   <NA>     08/2… 11/1… M     U.S. Se…
##  4 1        Allen Asa   Leona… <NA>   <NA>     01/0… 01/0… M     U.S. Re…
##  5 1        Allen Leo   Elwood <NA>   <NA>     10/0… 01/1… M     U.S. Re…
##  6 1        Almo… J.    Linds… Jr.    <NA>     06/1… 04/1… M     U.S. Re…
##  7 1        Ande… Herm… Carl   <NA>   <NA>     01/2… 07/2… M     U.S. Re…
##  8 1        Ande… Clin… Presba <NA>   <NA>     10/2… 11/1… M     U.S. Re…
##  9 1        Ande… John  Zuing… <NA>   <NA>     03/2… 02/0… M     U.S. Re…
## 10 1        Andr… Augu… Herman <NA>   <NA>     10/1… 01/1… M     U.S. Re…
## # … with 20,570 more rows, and 16 more variables: party <chr>,
## #   state <chr>, district <chr>, start <chr>, end <chr>, religion <chr>,
## #   race <chr>, educational_attainment <chr>, job_type1 <chr>,
## #   job_type2 <chr>, job_type3 <chr>, job_type4 <chr>, job_type5 <chr>,
## #   mil1 <chr>, mil2 <chr>, mil3 <chr>
