…
sessions <- as_tibble(data.frame(congress = 79:116,
                       start_year = seq(1945, 2019, by = 2),
                       end_year = seq(1947, 2021, by = 2)))

sessions <- sessions %>% 
  mutate(start_year = int_to_year(start_year, "01", "03"),
         end_year = int_to_year(end_year, "01", "03"))

data <- data %>% 
  mutate(congress = as.numeric(congress) + 78)

data

## # A tibble: 20,580 x 26
##    congress last  first middle suffix nickname born       death      sex  
##       <dbl> <chr> <chr> <chr>  <chr>  <chr>    <date>     <date>     <chr>
##  1       79 Aber… Thom… Gerst… <NA>   <NA>     1903-05-16 1953-01-23 M    
##  2       79 Adams Sher… <NA>   <NA>   <NA>     1899-01-08 1986-10-27 M    
##  3       79 Aiken Geor… David  <NA>   <NA>     1892-08-20 1984-11-19 M    
##  4       79 Allen Asa   Leona… <NA>   <NA>     1891-01-05 1969-01-05 M    
##  5       79 Allen Leo   Elwood <NA>   <NA>     1898-10-05 1973-01-19 M    
##  6       79 Almo… J.    Linds… Jr.    <NA>     1898-06-15 1986-04-14 M    
##  7       79 Ande… Herm… Carl   <NA>   <NA>     1897-01-27 1978-07-26 M    
##  8       79 Ande… Clin… Presba <NA>   <NA>     1895-10-23 1975-11-11 M    
##  9       79 Ande… John  Zuing… <NA>   <NA>     1904-03-22 1981-02-09 M    
## 10       79 Andr… Augu… Herman <NA>   <NA>     1890-10-11 1958-01-14 M    
## # … with 20,570 more rows, and 17 more variables: position <chr>,
## #   party <chr>, state <chr>, district <chr>, start <date>, end <date>,
## #   religion <chr>, race <chr>, educational_attainment <chr>,
## #   job_type1 <chr>, job_type2 <chr>, job_type3 <chr>, job_type4 <chr>,
## #   job_type5 <chr>, mil1 <chr>, mil2 <chr>, mil3 <chr>
…
## create pid for unique name_dobs
persons <- tibble(pid = 1:length(name_dob),
                  name_dob = name_dob)

data <- left_join(data, persons)

## Joining, by = "name_dob"

data <- data %>% 
  mutate(start_age = calc_age(born, start_year))

data %>% 
  select(start_age)

## # A tibble: 20,580 x 1
##    start_age
##        <int>
##  1        41
##  2        45
##  3        52
##  4        53
##  5        46
##  6        46
##  7        47
##  8        49
##  9        40
## 10        54
## # … with 20,570 more rows
…
mean_age <- data %>% filter(position == "U.S. Representative") %>%
    group_by(congress) %>%
    summarize(year = first(start_year), 
              mean_age = mean(start_age, na.rm = TRUE))

mean_age

## # A tibble: 38 x 3
##    congress year       mean_age
##       <dbl> <date>        <dbl>
##  1       79 1945-01-03     52.1
##  2       80 1947-01-03     51.3
##  3       81 1949-01-03     51.1
##  4       82 1951-01-03     52.1
##  5       83 1953-01-03     51.8
##  6       84 1955-01-03     52.1
##  7       85 1957-01-03     52.8
##  8       86 1959-01-03     51.7
##  9       87 1961-01-03     52.4
## 10       88 1963-01-03     51.8
## # … with 28 more rows
…
median_age_party <- data %>% 
  filter(position == "U.S. Representative") %>%
  group_by(congress, party) %>%
    summarize(year = first(start_year), 
              median_age = median(start_age)) %>%
    filter(party %in% c("Democrat", "Republican"))

median_age_party

## # A tibble: 76 x 4
## # Groups:   congress [38]
##    congress party      year       median_age
##       <dbl> <chr>      <date>          <dbl>
##  1       79 Democrat   1945-01-03         50
##  2       79 Republican 1945-01-03         52
##  3       80 Democrat   1947-01-03         50
##  4       80 Republican 1947-01-03         51
##  5       81 Democrat   1949-01-03         48
##  6       81 Republican 1949-01-03         54
##  7       82 Democrat   1951-01-03         50
##  8       82 Republican 1951-01-03         53
##  9       83 Democrat   1953-01-03         50
## 10       83 Republican 1953-01-03         53
## # … with 66 more rows
…
name_ranks <- data %>%
    select(start_year, first, sex) %>%
    filter(sex == "M", .preserve = FALSE) %>%
    group_by(start_year, first) %>%
    summarize(n = n()) %>%
    mutate(pct = (n/sum(n))*100) %>%
    group_by(start_year) %>%
    top_n(3, wt = pct)

name_ranks

## # A tibble: 115 x 4
## # Groups:   start_year [38]
##    start_year first       n   pct
##    <date>     <chr>   <int> <dbl>
##  1 1945-01-03 James      30  5.36
##  2 1945-01-03 John       49  8.75
##  3 1945-01-03 William    34  6.07
##  4 1947-01-03 James      24  4.35
##  5 1947-01-03 John       51  9.24
##  6 1947-01-03 William    32  5.80
##  7 1949-01-03 James      31  5.53
##  8 1949-01-03 John       54  9.63
##  9 1949-01-03 William    31  5.53
## 10 1951-01-03 James      34  5.74
## # … with 105 more rows

job_ranks <- data %>%
    select(start_year, job_type1) %>%
    group_by(start_year, job_type1) %>%
    summarize(n = n()) %>%
    mutate(pct = (n/sum(n))*100) %>%
    group_by(start_year) %>%
    top_n(3, wt = pct) %>% 
    arrange(desc(pct), .by_group = TRUE)  

job_ranks

## # A tibble: 115 x 4
## # Groups:   start_year [38]
##    start_year job_type1               n   pct
##    <date>     <chr>               <int> <dbl>
##  1 1945-01-03 Law                   237  41.7
##  2 1945-01-03 Business or banking   108  19.0
##  3 1945-01-03 Agriculture            65  11.4
##  4 1947-01-03 Law                   222  39.8
##  5 1947-01-03 Business or banking   117  21.0
##  6 1947-01-03 Agriculture            73  13.1
##  7 1949-01-03 Law                   227  39.9
##  8 1949-01-03 Business or banking   110  19.3
##  9 1949-01-03 Agriculture            77  13.5
## 10 1951-01-03 Law                   234  38.8
## # … with 105 more rows
…
house <- data %>% 
  filter(position == "U.S. Representative") %>% 
  group_by(pid) %>% 
  summarize(state = first(state),
            district = first(district),
            start = first(start), 
            end = first(end))

sen_and_house <- inner_join(senate, house, by = "pid")

sen_and_house

## # A tibble: 198 x 11
##      pid first last  party state.x start.x    end.x      state.y district
##    <int> <chr> <chr> <chr> <chr>   <date>     <date>     <chr>   <chr>   
##  1     8 Clin… Ande… Demo… NM      1949-01-03 1973-01-03 NM      AL      
##  2    27 Frank Barr… Repu… WY      1953-01-03 1959-01-03 WY      AL      
##  3    32 James Beall Repu… MD      1953-01-03 1965-01-03 MD      6       
##  4    35 Geor… Bend… Repu… OH      1954-12-16 1957-01-03 OH      AL      
##  5    67 Thom… Burch Demo… VA      1946-05-31 1946-11-05 VA      5       
##  6    83 Frank Carl… Repu… KS      1950-11-29 1969-01-03 KS      6       
##  7    86 Clif… Case  Repu… NJ      1955-01-05 1979-01-03 NJ      6       
##  8    87 Fran… Case  Repu… SD      1951-01-03 1962-06-22 SD      2       
##  9    90 Virg… Chap… Demo… KY      1949-01-03 1951-03-08 KY      6       
## 10    98 Earle Clem… Demo… KY      1950-11-27 1957-01-03 KY      2       
## # … with 188 more rows, and 2 more variables: start.y <date>, end.y <date>
